{
  "mongo": {
    "host": "mongodb",
    "port": 27017
  },
  "node": {
    "gateway": "127.0.0.1",
    "port": 3000
  },
  "api": {
    "blog": "http://blog-api:3001",
    "comments": "http://comments-api:3002",
    "tags": "http://tags-api:3003",
    "users": "http://users-api:3004"
  }
}